…
### Exercise 1

In total, there are 1643 Denny’s restaurants (each row in the tibble
represents one Denny’s location), and there are 6 variables (6 columns)
that describes the address, city, state, zip code, longitude and
latitude of each Denny’s.

``` r
## two dataset are called dennys and laquinta
## dennys
print(dennys)
```

    ## # A tibble: 1,643 × 6
    ##    address                        city            state zip   longitude latitude
    ##    <chr>                          <chr>           <chr> <chr>     <dbl>    <dbl>
    ##  1 2900 Denali                    Anchorage       AK    99503    -150.      61.2
    ##  2 3850 Debarr Road               Anchorage       AK    99508    -150.      61.2
    ##  3 1929 Airport Way               Fairbanks       AK    99701    -148.      64.8
    ##  4 230 Connector Dr               Auburn          AL    36849     -85.5     32.6
    ##  5 224 Daniel Payne Drive N       Birmingham      AL    35207     -86.8     33.6
    ##  6 900 16th St S, Commons on Gree Birmingham      AL    35294     -86.8     33.5
    ##  7 5931 Alabama Highway, #157     Cullman         AL    35056     -86.9     34.2
    ##  8 2190 Ross Clark Circle         Dothan          AL    36301     -85.4     31.2
    ##  9 900 Tyson Rd                   Hope Hull (Tys… AL    36043     -86.4     32.2
    ## 10 4874 University Drive          Huntsville      AL    35816     -86.7     34.7
    ## # ℹ 1,633 more rows
…
    ## [1] 6

### Exercise 2

In total, there are 909 La quinta hotels (each row in tibble represents
one La quinta locatin), and there are 6 variables (6 columns) that
describes the address, city, state, zip code, longitude and latitude of
each La quinta.

``` r
## laquinta
print(laquinta)
```

    ## # A tibble: 909 × 6
    ##    address                          city          state zip   longitude latitude
    ##    <chr>                            <chr>         <chr> <chr>     <dbl>    <dbl>
    ##  1 793 W. Bel Air Avenue            "\nAberdeen"  MD    21001     -76.2     39.5
    ##  2 3018 CatClaw Dr                  "\nAbilene"   TX    79606     -99.8     32.4
    ##  3 3501 West Lake Rd                "\nAbilene"   TX    79601     -99.7     32.5
    ##  4 184 North Point Way              "\nAcworth"   GA    30102     -84.7     34.1
    ##  5 2828 East Arlington Street       "\nAda"       OK    74820     -96.6     34.8
    ##  6 14925 Landmark Blvd              "\nAddison"   TX    75254     -96.8     33.0
    ##  7 Carretera Panamericana Sur KM 12 "\nAguascali… AG    20345    -102.      21.8
    ##  8 909 East Frontage Rd             "\nAlamo"     TX    78516     -98.1     26.2
    ##  9 2116 Yale Blvd Southeast         "\nAlbuquerq… NM    87106    -107.      35.1
    ## 10 7439 Pan American Fwy Northeast  "\nAlbuquerq… NM    87109    -107.      35.2
    ## # ℹ 899 more rows
…
    ## # A tibble: 0 × 6
    ## # ℹ 6 variables: address <chr>, city <chr>, state <chr>, zip <chr>,
    ## #   longitude <dbl>, latitude <dbl>

### Exercise 6

``` r
## creating country variable for dennys
dennys %>%
  mutate(country = "United States")
```

    ## # A tibble: 1,643 × 7
    ##    address                        city    state zip   longitude latitude country
    ##    <chr>                          <chr>   <chr> <chr>     <dbl>    <dbl> <chr>  
    ##  1 2900 Denali                    Anchor… AK    99503    -150.      61.2 United…
    ##  2 3850 Debarr Road               Anchor… AK    99508    -150.      61.2 United…
    ##  3 1929 Airport Way               Fairba… AK    99701    -148.      64.8 United…
    ##  4 230 Connector Dr               Auburn  AL    36849     -85.5     32.6 United…
    ##  5 224 Daniel Payne Drive N       Birmin… AL    35207     -86.8     33.6 United…
    ##  6 900 16th St S, Commons on Gree Birmin… AL    35294     -86.8     33.5 United…
    ##  7 5931 Alabama Highway, #157     Cullman AL    35056     -86.9     34.2 United…
    ##  8 2190 Ross Clark Circle         Dothan  AL    36301     -85.4     31.2 United…
    ##  9 900 Tyson Rd                   Hope H… AL    36043     -86.4     32.2 United…
    ## 10 4874 University Drive          Huntsv… AL    35816     -86.7     34.7 United…
    ## # ℹ 1,633 more rows
…
``` r
## adding a country variable to the La Quinta dataset AND filtering out all non-US La Quinta locations

laquinta %>%
  mutate(country = case_when(
    state %in% state.abb ~ "United States",
    state %in% c("ON", "BC") ~ "Canada",
    state == "ANT" ~ "Colombia",
    state == "FM" ~ "Honduras",
    state %in% c("AG", "QR", "CH", "NL", "VE","PU","Sl") ~ "Mexico"
  )) %>%
  filter(country == "United States")
```

    ## # A tibble: 895 × 7
    ##    address                         city   state zip   longitude latitude country
    ##    <chr>                           <chr>  <chr> <chr>     <dbl>    <dbl> <chr>  
    ##  1 793 W. Bel Air Avenue           "\nAb… MD    21001     -76.2     39.5 United…
    ##  2 3018 CatClaw Dr                 "\nAb… TX    79606     -99.8     32.4 United…
    ##  3 3501 West Lake Rd               "\nAb… TX    79601     -99.7     32.5 United…
    ##  4 184 North Point Way             "\nAc… GA    30102     -84.7     34.1 United…
    ##  5 2828 East Arlington Street      "\nAd… OK    74820     -96.6     34.8 United…
    ##  6 14925 Landmark Blvd             "\nAd… TX    75254     -96.8     33.0 United…
    ##  7 909 East Frontage Rd            "\nAl… TX    78516     -98.1     26.2 United…
    ##  8 2116 Yale Blvd Southeast        "\nAl… NM    87106    -107.      35.1 United…
    ##  9 7439 Pan American Fwy Northeast "\nAl… NM    87109    -107.      35.2 United…
    ## 10 2011 Menaul Blvd Northeast      "\nAl… NM    87107    -107.      35.1 United…
    ## # ℹ 885 more rows
…
``` r
## counting the states have the most and fewest Denny’s locations

dennys %>%
  count(state) %>%
  inner_join(states, by = c("state" = "abbreviation"))
```

    ## # A tibble: 51 × 4
    ##    state     n name                     area
    ##    <chr> <int> <chr>                   <dbl>
    ##  1 AK        3 Alaska               665384. 
    ##  2 AL        7 Alabama               52420. 
    ##  3 AR        9 Arkansas              53179. 
    ##  4 AZ       83 Arizona              113990. 
    ##  5 CA      403 California           163695. 
    ##  6 CO       29 Colorado             104094. 
    ##  7 CT       12 Connecticut            5543. 
    ##  8 DC        2 District of Columbia     68.3
    ##  9 DE        1 Delaware               2489. 
    ## 10 FL      140 Florida               65758. 
    ## # ℹ 41 more rows

``` r
## counting the states have the most and fewest La quinta’s locations

laquinta %>%
  count(state) %>%
  inner_join(states, by = c("state" = "abbreviation"))
```

    ## # A tibble: 48 × 4
    ##    state     n name           area
    ##    <chr> <int> <chr>         <dbl>
    ##  1 AK        2 Alaska      665384.
    ##  2 AL       16 Alabama      52420.
    ##  3 AR       13 Arkansas     53179.
    ##  4 AZ       18 Arizona     113990.
    ##  5 CA       56 California  163695.
    ##  6 CO       27 Colorado    104094.
    ##  7 CT        6 Connecticut   5543.
    ##  8 FL       74 Florida      65758.
    ##  9 GA       41 Georgia      59425.
    ## 10 IA        4 Iowa         56273.
    ## # ℹ 38 more rows
…
``` r
## counting states having the most Denny's location per thousand square miles.

dennys_density <- dennys %>%
  count(state) %>%
  inner_join(states, by = c("state" = "abbreviation")) %>%
  mutate(dennys_per_1000_sq_miles = n / (area / 1000)) %>%
  arrange(desc(dennys_per_1000_sq_miles))

print(dennys_density)
```

    ## # A tibble: 51 × 5
    ##    state     n name                     area dennys_per_1000_sq_miles
    ##    <chr> <int> <chr>                   <dbl>                    <dbl>
    ##  1 DC        2 District of Columbia     68.3                   29.3  
    ##  2 RI        5 Rhode Island           1545.                     3.24 
    ##  3 CA      403 California           163695.                     2.46 
    ##  4 CT       12 Connecticut            5543.                     2.16 
    ##  5 FL      140 Florida               65758.                     2.13 
    ##  6 MD       26 Maryland              12406.                     2.10 
    ##  7 NJ       10 New Jersey             8723.                     1.15 
    ##  8 NY       56 New York              54555.                     1.03 
    ##  9 IN       37 Indiana               36420.                     1.02 
    ## 10 OH       44 Ohio                  44826.                     0.982
    ## # ℹ 41 more rows

``` r
## counting states having the most La quinta location per thousand square miles.

lq_density <- laquinta %>%
  count(state) %>%
  inner_join(states, by = c("state" = "abbreviation")) %>%
  mutate(lq_per_1000_sq_miles = n / (area / 1000)) %>%
  arrange(desc(lq_per_1000_sq_miles))

print(lq_density)
```

    ## # A tibble: 48 × 5
    ##    state     n name             area lq_per_1000_sq_miles
    ##    <chr> <int> <chr>           <dbl>                <dbl>
    ##  1 RI        2 Rhode Island    1545.                1.29 
    ##  2 FL       74 Florida        65758.                1.13 
    ##  3 CT        6 Connecticut     5543.                1.08 
    ##  4 MD       13 Maryland       12406.                1.05 
    ##  5 TX      237 Texas         268596.                0.882
    ##  6 TN       30 Tennessee      42144.                0.712
    ##  7 GA       41 Georgia        59425.                0.690
    ##  8 NJ        5 New Jersey      8723.                0.573
    ##  9 MA        6 Massachusetts  10554.                0.568
    ## 10 LA       28 Louisiana      52378.                0.535
    ## # ℹ 38 more rows
…
